<svg id="icon-events" xmlns="http://www.w3.org/2000/svg" width="17.512" height="19.4" viewBox="0 0 17.512 19.4">
  <path id="icon-events-2" data-name="icon-events" d="M17720.936,23510.4a1.941,1.941,0,0,1-1.936-1.941l.006-13.576a1.934,1.934,0,0,1,1.93-1.941h.973V23491h1.941v1.941h7.752V23491h1.941v1.941h.975a1.945,1.945,0,0,1,1.936,1.941v7.074a5,5,0,0,0-1.936-.855v-3.311h-13.582v10.668h8.219a5.008,5.008,0,0,0,1.971,1.936v.006Zm9.576-4.4a3,3,0,1,1,3,3A3,3,0,0,1,17730.512,23506Zm.9,0,1.5,1.5,2.7-2.7-.42-.432-2.277,2.277-1.08-1.072Zm-4.9-1a1,1,0,1,1,1,1A1,1,0,0,1,17726.5,23505Zm-4,0a1,1,0,1,1,1,1A1,1,0,0,1,17722.5,23505Zm4-4a1,1,0,1,1,1,1A1,1,0,0,1,17726.5,23501Zm-4,0a1,1,0,1,1,1,1A1,1,0,0,1,17722.5,23501Zm8.35.756a1,1,0,1,1,1.652-.756.591.591,0,0,1-.006.1,5.031,5.031,0,0,0-1.646.654v.006Z" transform="translate(-17719 -23491.002)" fill="#d1d7f2"/>
</svg>
