<svg id="Component_61_48" data-name="Component 61 – 48" xmlns="http://www.w3.org/2000/svg" width="16" height="16" viewBox="0 0 16 16">
  <path id="fullscreen" d="M7.286,15.286H5V21h5.714V18.714H7.286ZM5,10.714H7.286V7.286h3.429V5H5Zm13.714,8H15.286V21H21V15.286H18.714ZM15.286,5V7.286h3.429v3.429H21V5Z" transform="translate(-5 -5)" fill="#788e9b"/>
</svg>
