<svg id="Icon_-_notification_i" data-name="Icon - notification_i" xmlns="http://www.w3.org/2000/svg" width="12.003" height="14.002" viewBox="0 0 12.003 14.002">
  <path id="Subtraction_49" data-name="Subtraction 49" d="M6,14a1.471,1.471,0,0,1-1.5-1.436h3A1.471,1.471,0,0,1,6,14Zm6-2.155H0v-.718L1.5,9.692V6.1a4.938,4.938,0,0,1,.881-2.915,4.149,4.149,0,0,1,2.5-1.623V1.076a1.127,1.127,0,0,1,2.251,0v.489A4.41,4.41,0,0,1,10.5,6.1v3.59L12,11.128v.717ZM5.974,9.559a.6.6,0,1,0,0,1.206h.051a.6.6,0,1,0,0-1.206ZM6,3.189a.63.63,0,0,0-.629.629V8.305a.629.629,0,0,0,1.257,0V3.818A.629.629,0,0,0,6,3.189Z" transform="translate(0.002 0.002)" fill="#f8d422"/>
</svg>
