<svg xmlns="http://www.w3.org/2000/svg" width="11" height="11" viewBox="0 0 11 11">
  <g id="Icon_-_Delete" data-name="Icon - Delete" transform="translate(0.5 0.5)">
    <path id="Path_11572" data-name="Path 11572" d="M538.25,6.889l-.187,3.889m-2.125,0-.187-3.889m-2.5-2.222.547,7.3A1.2,1.2,0,0,0,535.044,13h3.911a1.2,1.2,0,0,0,1.247-1.037l.547-7.3m-7.5,0h1.875m-1.875,0H532m8.75,0H542m-1.25,0h-1.875m0,0V4.111A1.187,1.187,0,0,0,537.625,3h-1.25a1.187,1.187,0,0,0-1.25,1.111v.556m3.75,0h-3.75" transform="translate(-532 -3)" fill="none" stroke="#16aeab" stroke-linecap="round" stroke-linejoin="round" stroke-width="1"/>
  </g>
</svg>
