<svg xmlns="http://www.w3.org/2000/svg" width="20" height="20" viewBox="0 0 20 20">
  <g id="icon-algorithm" opacity="0.5">
    <rect id="Rectangle_9735" data-name="Rectangle 9735" width="20" height="20" fill="none"/>
    <path id="Path_11865" data-name="Path 11865" d="M17943.5,23301.975a1.5,1.5,0,0,1-1.5-1.5v-1.9a1.5,1.5,0,0,1,1.5-1.5h1.908a1.5,1.5,0,0,1,1.5,1.5v.2h.48v-6.568h-.48v.2a1.5,1.5,0,0,1-1.5,1.5h-1.908a1.5,1.5,0,0,1-1.5-1.5v-1.9a1.5,1.5,0,0,1,1.5-1.5h1.908a1.5,1.5,0,0,1,1.5,1.5v.2h1.234a.751.751,0,0,1,.748.754v3.246h.736v-.2a1.5,1.5,0,0,1,1.5-1.5h1.906a1.5,1.5,0,0,1,1.5,1.5v1.9a1.5,1.5,0,0,1-1.5,1.5h-1.906a1.5,1.5,0,0,1-1.5-1.5v-.2h-.736v3.322a.747.747,0,0,1-.748.748h-1.234v.2a1.5,1.5,0,0,1-1.5,1.5Zm0-1.5h1.908v-1.9h-1.908Zm7.621-4.07h1.906v-1.9h-1.906Zm-7.621-4h1.908v-1.9h-1.908Z" transform="translate(-17938.002 -23285.496)" fill="#545454"/>
  </g>
</svg>
