<svg xmlns="http://www.w3.org/2000/svg" width="32" height="32" viewBox="0 0 32 32">
  <path id="icon-alert-error_outline" d="M14.4,20.8h3.2V24H14.4ZM14.4,8h3.2v9.6H14.4Zm1.584-8A16,16,0,1,0,27.308,4.681,16,16,0,0,0,15.984,0ZM16,28.8A12.8,12.8,0,1,1,28.8,16,12.8,12.8,0,0,1,16,28.8Z" transform="translate(0 0)" fill="#fd7575"/>
</svg>
