<svg id="icon-profiling" xmlns="http://www.w3.org/2000/svg" width="20.039" height="20.004" viewBox="0 0 20.039 20.004">
  <path id="Path_11819" data-name="Path 11819" d="M17721,23511a2.02,2.02,0,0,1-2-2v-14a2.018,2.018,0,0,1,2-2h4.178a2.989,2.989,0,0,1,5.641,0H17735a2.01,2.01,0,0,1,2,2v8.273l-.459-.455a5.266,5.266,0,0,0-3.541-5.475V23497h-10v2h4.621a1.994,1.994,0,0,0-1.068.99,5.275,5.275,0,0,0-.359,1.01H17723v2h3.092a5.113,5.113,0,0,0,.732,2H17723v2h6.043a5.209,5.209,0,0,0,2.254.52,4.226,4.226,0,0,0,.52-.029l3.48,3.486a1.624,1.624,0,0,1-.295.025Zm6-17a1,1,0,1,0,1-1A1,1,0,0,0,17727,23494Zm10,15.848-4.549-4.549a3.2,3.2,0,0,1-2.9-.3h0c-.008,0-.014-.01-.021-.014a3.364,3.364,0,0,1-.527-.434,3.2,3.2,0,0,1-.777-1.211.136.136,0,0,0-.01-.025c-.006-.021-.014-.043-.02-.064s-.014-.041-.021-.062-.006-.023-.01-.035c-.01-.033-.02-.066-.027-.1,0,0,0,0,0,0l-.012-.051h0a3.241,3.241,0,0,1,.229-2.143l2.2,2.148,1.494-1.5-2.148-2.148a3.311,3.311,0,0,1,3.7.648,3.219,3.219,0,0,1,.75,3.447l1.32,1.32,1.328,1.322v.006l1.895,1.895a.446.446,0,0,1,.141.365.429.429,0,0,1-.187.336l-1.15,1.15a.481.481,0,0,1-.35.148A.471.471,0,0,1,17737,23509.852Z" transform="translate(-17718.998 -23491)" fill="#6c759b"/>
</svg>
