<svg id="Icon_-_Card" data-name="Icon - Card" xmlns="http://www.w3.org/2000/svg" width="13.998" height="14.004" viewBox="0 0 13.998 14.004">
  <path id="Union_163" data-name="Union 163" d="M17943.982,23418v-6.018H17950V23418Zm-7.98,0v-6.018h6.018V23418Zm7.98-7.98V23404H17950v6.023Zm-7.98,0V23404h6.018v6.023Z" transform="translate(-17936.002 -23403.998)" fill="#d0d0d0"/>
</svg>
