<svg id="Icon_-_Column_filter" data-name="Icon - Column filter" xmlns="http://www.w3.org/2000/svg" width="15" height="14" viewBox="0 0 15 14">
  <rect id="Rectangle_5688" data-name="Rectangle 5688" width="4" height="14" rx="0.5" fill="#788e9b"/>
  <rect id="Rectangle_5689" data-name="Rectangle 5689" width="4" height="9" rx="0.5" transform="translate(5.41)" fill="#788e9b"/>
  <rect id="Rectangle_5690" data-name="Rectangle 5690" width="4" height="14" rx="0.5" transform="translate(11)" fill="#788e9b"/>
</svg>
