<svg id="icon-dashboard" xmlns="http://www.w3.org/2000/svg" width="14.996" height="13.09" viewBox="0 0 14.996 13.09">
  <path id="Path_11810" data-name="Path 11810" d="M17733.494,23504.088h-10a.5.5,0,0,1-.5-.5v-7.5a.5.5,0,0,1,.5-.494h10a.5.5,0,0,1,.5.494v7.5A.5.5,0,0,1,17733.494,23504.088Zm-2.012-7.043a.5.5,0,0,0-.5.5v4.625a.5.5,0,1,0,1,0v-4.625A.5.5,0,0,0,17731.482,23497.045Zm-3,1.627a.5.5,0,0,0-.5.5v3a.5.5,0,1,0,1,0v-3A.5.5,0,0,0,17728.486,23498.672Zm-3,1a.5.5,0,0,0-.5.5v2a.5.5,0,1,0,1,0v-2A.5.5,0,0,0,17725.482,23499.67Zm-3.986,4.418h-1.994a.5.5,0,0,1-.5-.5v-7.5a.5.5,0,0,1,.5-.494h1.994a.5.5,0,0,1,.5.494v7.5A.5.5,0,0,1,17721.5,23504.088Zm12-9.586h-14a.5.5,0,0,1-.5-.5v-2.5a.5.5,0,0,1,.5-.5h14a.5.5,0,0,1,.5.5v2.5A.5.5,0,0,1,17733.5,23494.5Z" transform="translate(-17719 -23490.998)" fill="#6c759b"/>
</svg>
