<svg id="icon-navigation-close" xmlns="http://www.w3.org/2000/svg" width="8" height="8" viewBox="0 0 8 8">
  <path id="icon-navigation-close-2" data-name="icon-navigation-close" d="M8,.806,7.194,0,4,3.194.806,0,0,.806,3.194,4,0,7.194.806,8,4,4.806,7.194,8,8,7.194,4.806,4Z" fill="#16aeab"/>
</svg>
