<svg id="iocn-nearingSLA" xmlns="http://www.w3.org/2000/svg" width="12" height="20" viewBox="0 0 12 20">
  <g id="Group_34226" data-name="Group 34226" transform="translate(-529 -192)" opacity="0.89">
    <path id="icon-action-hourglass_empty" d="M0,0V6H.01L0,6.01,4,10,0,14l.01.01H0V20H12V14.01h-.01L12,14,8,10l4-3.99L11.99,6H12V0ZM10,14.5V18H2V14.5l4-4Zm-4-5-4-4V2h8V5.5Z" transform="translate(529 192)" fill="#788e9b"/>
    <path id="Polygon_523" data-name="Polygon 523" d="M5,0l5,3H0Z" transform="translate(530 208)" fill="#788e9b" stroke="#788e9b" stroke-linejoin="round" stroke-width="1"/>
    <path id="Polygon_525" data-name="Polygon 525" d="M4,0,8,4H0Z" transform="translate(539 201) rotate(180)" fill="#788e9b" stroke="#788e9b" stroke-linejoin="round" stroke-width="1"/>
  </g>
</svg>
